
{
"employees":[
{"id":1,"firstName":"Joye","lastName":"Strauss","email":"jstrauss0@bigcartel.com","phone":"734-693-4847","title":"Office Assistant III","department":"Engineering","image":"https://randomuser.me/api/portraits/men/94.jpg"},
{"id":2,"firstName":"Alene","lastName":"McGriffin","email":"amcgriffin1@opera.com","phone":"492-439-4193","title":"Geologist I","department":"Engineering","image":"https://randomuser.me/api/portraits/women/54.jpg"},
{"id":3,"firstName":"Pattin","lastName":"Billie","email":"pbillie2@nasa.gov","phone":"150-895-0978","title":"Sales Associate","department":"Training","image":"https://randomuser.me/api/portraits/men/2.jpg"},
{"id":4,"firstName":"Colan","lastName":"Reavell","email":"creavell3@hao123.com","phone":"972-817-4918","title":"Senior Developer","department":"Legal","image":"https://randomuser.me/api/portraits/women/72.jpg"},
{"id":5,"firstName":"Camilla","lastName":"Le Provest","email":"cleprovest4@mediafire.com","phone":"821-143-7117","title":"Research Assistant IV","department":"Legal","image":"https://randomuser.me/api/portraits/women/9.jpg"},
{"id":6,"firstName":"Elsey","lastName":"Cordova","email":"ecordova5@blogger.com","phone":"677-173-6356","title":"Operator","department":"Engineering","image":"https://randomuser.me/api/portraits/women/8.jpg"},
{"id":7,"firstName":"Trudy","lastName":"Fudger","email":"tfudger6@mapquest.com","phone":"364-703-0639","title":"Help Desk Technician","department":"Research and Development","image":"https://randomuser.me/api/portraits/women/15.jpg"},
{"id":8,"firstName":"Gloria","lastName":"Chatan","email":"gchatan7@deviantart.com","phone":"479-986-1770","title":"VP Marketing","department":"Research and Development","image":"https://randomuser.me/api/portraits/men/7.jpg"},
{"id":9,"firstName":"Starr","lastName":"Gethen","email":"sgethen8@businesswire.com","phone":"578-360-9597","title":"Administrative Officer","department":"Engineering","image":"https://randomuser.me/api/portraits/men/3.jpg"},
{"id":10,"firstName":"Gretel","lastName":"Bischop","email":"gbischop9@multiply.com","phone":"823-770-5030","title":"VP Sales","department":"Product Management","image":"https://randomuser.me/api/portraits/men/2.jpg"},
{"id":11,"firstName":"Gerrilee","lastName":"Munnings","email":"gmunningsa@mayoclinic.com","phone":"185-555-9590","title":"Assistant Professor","department":"Support","image":"https://randomuser.me/api/portraits/men/74.jpg"},
{"id":12,"firstName":"Roderic","lastName":"Fullick","email":"rfullickb@tuttocitta.it","phone":"731-665-8551","title":"Research Assistant I","department":"Accounting","image":"https://randomuser.me/api/portraitsmen/5.jpg"},
{"id":13,"firstName":"Thornie","lastName":"McKeon","email":"tmckeonc@ebay.com","phone":"829-768-8562","title":"Sales Associate","department":"Legal","image":"https://randomuser.me/api/portraits/96.jpg"},
{"id":14,"firstName":"Holden","lastName":"Pighills","email":"hpighillsd@jigsy.com","phone":"709-277-5937","title":"Junior Executive","department":"Product Management","image":"https://randomuser.me/api/portraits/women/90.jpg"},
{"id":15,"firstName":"Verna","lastName":"Gatlin","email":"vgatline@narod.ru","phone":"209-932-0874","title":"Structural Engineer","department":"Legal","image":"https://randomuser.me/api/portraits/women6.jpg"},
{"id":16,"firstName":"Gabey","lastName":"Slimon","email":"gslimonf@posterous.com","phone":"271-601-6339","title":"Physical Therapy Assistant","department":"Services","image":"https://randomuser.me/api/portraits/women/2.jpg"},
{"id":17,"firstName":"Pollyanna","lastName":"Dorsey","email":"pdorseyg@scientificamerican.com","phone":"975-453-3205","title":"Help Desk Technician","department":"Product Management","image":"https://randomuser.me/api/portraits/2.jpg"},
{"id":18,"firstName":"Raimund","lastName":"Durrance","email":"rdurranceh@hp.com","phone":"529-567-9888","title":"Senior Editor","department":"Support","image":"https://randomuser.me/api/portraitsmen0.jpg"},
{"id":19,"firstName":"Cathee","lastName":"Tagg","email":"ctaggi@ca.gov","phone":"482-189-3246","title":"Web Developer III","department":"Marketing","image":"https://randomuser.me/api/portraits/women/78.jpg"},
{"id":20,"firstName":"Romy","lastName":"Dimitriades","email":"rdimitriadesj@mayoclinic.com","phone":"191-979-7707","title":"VP Quality Control","department":"Research and Development","image":"https://randomuser.me/api/portraits/men/81.jpg"},
{"id":21,"firstName":"Jeri","lastName":"Grimditch","email":"jgrimditchk@npr.org","phone":"284-733-0741","title":"Internal Auditor","department":"Accounting","image":"https://randomuser.me/api/portraits/4.jpg"},
{"id":22,"firstName":"Sascha","lastName":"O'Reilly","email":"soreillyl@xing.com","phone":"578-777-0953","title":"Structural Analysis Engineer","department":"Engineering","image":"https://randomuser.me/api/portraits/2.jpg"},
{"id":23,"firstName":"Ernesta","lastName":"Stodit","email":"estoditm@google.ca","phone":"737-432-4553","title":"Environmental Specialist","department":"Training","image":"https://randomuser.me/api/portraits/women/1.jpg"},
{"id":24,"firstName":"Chickie","lastName":"Cardoe","email":"ccardoen@vk.com","phone":"306-897-0166","title":"Graphic Designer","department":"Engineering","image":"https://randomuser.me/api/portraits/women/57.jpg"},
{"id":25,"firstName":"Tory","lastName":"Rennels","email":"trennelso@fastcompany.com","phone":"641-729-7488","title":"Biostatistician IV","department":"Business Development","image":"https://randomuser.me/api/portraits/51.jpg"},
{"id":26,"firstName":"Hobard","lastName":"Swarbrick","email":"hswarbrickp@yolasite.com","phone":"840-104-9813","title":"Occupational Therapist","department":"Legal","image":"https://randomuser.me/api/portraits/5.jpg"},
{"id":27,"firstName":"Simonne","lastName":"Boller","email":"sbollerq@infoseek.co.jp","phone":"160-566-2561","title":"Senior Cost Accountant","department":"Business Development","image":"https://randomuser.me/api/portraits/men/7.jpg"},
{"id":28,"firstName":"Penn","lastName":"Mercer","email":"pmercerr@independent.co.uk","phone":"377-813-4052","title":"Account Executive","department":"Marketing","image":"https://randomuser.me/api/portraits/35.jpg"},
{"id":29,"firstName":"Austin","lastName":"Iacobini","email":"aiacobinis@house.gov","phone":"514-530-5470","title":"GIS Technical Architect","department":"Marketing","image":"https://randomuser.me/api/portraits/men/14.jpg"},
{"id":30,"firstName":"Traci","lastName":"Bangham","email":"tbanghamt@pagesperso-orange.fr","phone":"860-792-9939","title":"Desktop Support Technician","department":"Business Development","image":"https://randomuser.me/api/portraits/men/69.jpg"},
{"id":31,"firstName":"Beck","lastName":"Jacobovitz","email":"bjacobovitzu@devhub.com","phone":"180-696-3824","title":"Actuary","department":"Services","image":"https://randomuser.me/api/portraitsmen6.jpg"},
{"id":32,"firstName":"Jasun","lastName":"Cutress","email":"jcutressv@sbwire.com","phone":"579-821-0569","title":"Assistant Manager","department":"Human Resources","image":"https://randomuser.me/api/portraits/90.jpg"},
{"id":33,"firstName":"Harlan","lastName":"Mansel","email":"hmanselw@ucla.edu","phone":"228-698-7734","title":"Human Resources Assistant I","department":"Research and Development","image":"https://randomuser.me/api/portraits/1.jpg"},
{"id":34,"firstName":"Ralf","lastName":"Abrahamoff","email":"rabrahamoffx@marriott.com","phone":"572-773-9891","title":"Occupational Therapist","department":"Training","image":"https://randomuser.me/api/portraits/men/5.jpg"},
{"id":35,"firstName":"Aldin","lastName":"Mabone","email":"amaboney@netvibes.com","phone":"646-470-7638","title":"Senior Editor","department":"Training","image":"https://randomuser.me/api/portraitsmen/1.jpg"},
{"id":36,"firstName":"Jennine","lastName":"Domingues","email":"jdominguesz@diigo.com","phone":"369-983-1526","title":"Senior Editor","department":"Services","image":"https://randomuser.me/api/portraits/men/22.jpg"},
{"id":37,"firstName":"Maryellen","lastName":"Moan","email":"mmoan10@pagesperso-orange.fr","phone":"992-554-8676","title":"Senior Editor","department":"Accounting","image":"https://randomuser.me/api/portraits/80.jpg"},
{"id":38,"firstName":"Marie-ann","lastName":"Impey","email":"mimpey11@purevolume.com","phone":"948-149-3532","title":"VP Quality Control","department":"Accounting","image":"https://randomuser.me/api/portraits/women/6.jpg"},
{"id":39,"firstName":"Lena","lastName":"Kilby","email":"lkilby12@cnn.com","phone":"509-301-7492","title":"Project Manager","department":"Training","image":"https://randomuser.me/api/portraits/men3.jpg"},
{"id":40,"firstName":"Merle","lastName":"Skydall","email":"mskydall13@unblog.fr","phone":"617-401-2859","title":"Biostatistician IV","department":"Accounting","image":"https://randomuser.me/api/portraits/women/9.jpg"},
{"id":41,"firstName":"Rosetta","lastName":"Hulatt","email":"rhulatt14@prweb.com","phone":"696-484-3305","title":"Speech Pathologist","department":"Engineering","image":"https://randomuser.me/api/portraitsmen/78.jpg"},
{"id":42,"firstName":"Wilhelmina","lastName":"Wentworth","email":"wwentworth15@webnode.com","phone":"769-495-8023","title":"Associate Professor","department":"Accounting","image":"https://randomuser.me/api/portraitsmen/52.jpg"},
{"id":43,"firstName":"Xaviera","lastName":"Laidler","email":"xlaidler16@home.pl","phone":"752-433-0514","title":"Teacher","department":"Support","image":"https://randomuser.me/api/portraitsmen/69.jpg"},
{"id":44,"firstName":"Emory","lastName":"Reisin","email":"ereisin17@upenn.edu","phone":"873-840-1114","title":"Systems Administrator I","department":"Legal","image":"https://randomuser.me/api/portraitsmen/3.jpg"},
{"id":45,"firstName":"Biddy","lastName":"Hattoe","email":"bhattoe18@alexa.com","phone":"995-102-2025","title":"Operator","department":"Marketing","image":"https://randomuser.me/api/portraits/women/5.jpg"},
{"id":46,"firstName":"Artemis","lastName":"Braban","email":"abraban19@weebly.com","phone":"689-434-6479","title":"VP Product Management","department":"Research and Development","image":"https://randomuser.me/api/portraits/women/6.jpg"},
{"id":47,"firstName":"Elane","lastName":"Delagnes","email":"edelagnes1a@mlb.com","phone":"313-680-1483","title":"Financial Advisor","department":"Services","image":"https://randomuser.me/api/portraitsmen/63.jpg"},
{"id":48,"firstName":"Sibbie","lastName":"Antoinet","email":"santoinet1b@mapquest.com","phone":"455-407-2693","title":"Automation Specialist III","department":"Business Development","image":"https://randomuser.me/api/portraits/women/5.jpg"},
{"id":49,"firstName":"Nan","lastName":"Jacquest","email":"njacquest1c@usnews.com","phone":"697-621-3226","title":"Engineer IV","department":"Engineering","image":"https://randomuser.me/api/portraits/women/70.jpg"},
{"id":50,"firstName":"Luz","lastName":"Gawith","email":"lgawith1d@nsw.gov.au","phone":"309-271-5355","title":"Research Nurse","department":"Accounting","image":"https://randomuser.me/api/portraits/6.jpg"},
{"id":51,"firstName":"Evyn","lastName":"Van Der Weedenburg","email":"evanderweedenburg1e@latimes.com","phone":"931-930-5195","title":"Cost Accountant","department":"Engineering","image":"https://randomuser.me/api/portraits/women/1.jpg"},
{"id":52,"firstName":"Colleen","lastName":"Goldhawk","email":"cgoldhawk1f@blogs.com","phone":"546-462-6326","title":"Senior Quality Engineer","department":"Accounting","image":"https://randomuser.me/api/portraits/men/2.jpg"},
{"id":53,"firstName":"Justino","lastName":"Kloss","email":"jkloss1g@wsj.com","phone":"712-858-5918","title":"Social Worker","department":"Research and Development","image":"https://randomuser.me/api/portraits/women7.jpg"},
{"id":54,"firstName":"Catherina","lastName":"Spelwood","email":"cspelwood1h@csmonitor.com","phone":"782-177-7894","title":"Assistant Professor","department":"Human Resources","image":"https://randomuser.me/api/portraits/women/8.jpg"},
{"id":55,"firstName":"Wendell","lastName":"Oselton","email":"woselton1i@edublogs.org","phone":"643-280-1556","title":"Automation Specialist III","department":"Services","image":"https://randomuser.me/api/portraits/men/6.jpg"},
{"id":56,"firstName":"Nerty","lastName":"Clougher","email":"nclougher1j@exblog.jp","phone":"521-852-8608","title":"Senior Developer","department":"Services","image":"https://randomuser.me/api/portraits/women/7.jpg"},
{"id":57,"firstName":"Willi","lastName":"Russi","email":"wrussi1k@shareasale.com","phone":"798-681-4230","title":"Dental Hygienist","department":"Accounting","image":"https://randomuser.me/api/portraits/women/7.jpg"},
{"id":58,"firstName":"Micheil","lastName":"Bosche","email":"mbosche1l@tamu.edu","phone":"732-787-2969","title":"Librarian","department":"Accounting","image":"https://randomuser.me/api/portraits/women/40.jpg"},
{"id":59,"firstName":"Bonny","lastName":"Pym","email":"bpym1m@mozilla.org","phone":"692-181-9581","title":"Legal Assistant","department":"Support","image":"https://randomuser.me/api/portraits/men/50.jpg"},
{"id":60,"firstName":"Rockey","lastName":"Humphries","email":"rhumphries1n@dailymail.co.uk","phone":"806-301-1692","title":"Compensation Analyst","department":"Services","image":"https://randomuser.me/api/portraitsmen/52.jpg"},
{"id":61,"firstName":"Albertine","lastName":"Rahill","email":"arahill1o@etsy.com","phone":"161-204-2151","title":"Accountant IV","department":"Sales","image":"https://randomuser.me/api/portraits/men7.jpg"},
{"id":62,"firstName":"Merrie","lastName":"Dadd","email":"mdadd1p@yellowpages.com","phone":"321-860-2078","title":"Engineer II","department":"Training","image":"https://randomuser.me/api/portraitsmen/60.jpg"},
{"id":63,"firstName":"Tobiah","lastName":"Crawford","email":"tcrawford1q@google.es","phone":"289-415-8995","title":"Business Systems Development Analyst","department":"Engineering","image":"https://randomuser.me/api/portraits/men/4.jpg"},
{"id":64,"firstName":"Tyler","lastName":"Admans","email":"tadmans1r@purevolume.com","phone":"533-760-3594","title":"Occupational Therapist","department":"Research and Development","image":"https://randomuser.me/api/portraits/men0.jpg"},
{"id":65,"firstName":"Witty","lastName":"Macrae","email":"wmacrae1s@hugedomains.com","phone":"216-639-6019","title":"Clinical Specialist","department":"Accounting","image":"https://randomuser.me/api/portraits/women6.jpg"},
{"id":66,"firstName":"Delaney","lastName":"Bitchener","email":"dbitchener1t@spiegel.de","phone":"793-441-7719","title":"Junior Executive","department":"Support","image":"https://randomuser.me/api/portraits/5.jpg"},
{"id":67,"firstName":"Kristos","lastName":"Jandera","email":"kjandera1u@sitemeter.com","phone":"624-682-4564","title":"General Manager","department":"Support","image":"https://randomuser.me/api/portraits/men9.jpg"},
{"id":68,"firstName":"Winn","lastName":"Furnival","email":"wfurnival1v@dell.com","phone":"463-858-5810","title":"Sales Representative","department":"Business Development","image":"https://randomuser.me/api/portraits/men4.jpg"},
{"id":69,"firstName":"Malinda","lastName":"Labba","email":"mlabba1w@shareasale.com","phone":"714-327-1653","title":"Account Coordinator","department":"Legal","image":"https://randomuser.me/api/portraitsmen/67.jpg"},
{"id":70,"firstName":"Tabor","lastName":"Mac Geaney","email":"tmacgeaney1x@123-reg.co.uk","phone":"689-488-4454","title":"Assistant Media Planner","department":"Legal","image":"https://randomuser.me/api/portraits/women1.jpg"},
{"id":71,"firstName":"Nicolis","lastName":"Cleugher","email":"ncleugher1y@friendfeed.com","phone":"469-738-7436","title":"Recruiter","department":"Research and Development","image":"https://randomuser.me/api/portraits/women/5.jpg"},
{"id":72,"firstName":"Deane","lastName":"Corps","email":"dcorps1z@squarespace.com","phone":"767-871-1650","title":"Editor","department":"Research and Development","image":"https://randomuser.me/api/portraitsmen/71.jpg"},
{"id":73,"firstName":"Jackson","lastName":"Andric","email":"jandric20@discuz.net","phone":"589-500-6825","title":"Developer IV","department":"Research and Development","image":"https://randomuser.me/api/portraits/men/4.jpg"},
{"id":74,"firstName":"Loise","lastName":"Marvel","email":"lmarvel21@vinaora.com","phone":"633-511-9408","title":"Technical Writer","department":"Engineering","image":"https://randomuser.me/api/portraits/women/6.jpg"},
{"id":75,"firstName":"Joellen","lastName":"Englishby","email":"jenglishby22@ucla.edu","phone":"713-491-8300","title":"VP Product Management","department":"Product Management","image":"https://randomuser.me/api/portraits/1.jpg"},
{"id":76,"firstName":"Misha","lastName":"O' Ronan","email":"moronan23@purevolume.com","phone":"542-644-9297","title":"Systems Administrator I","department":"Research and Development","image":"https://randomuser.me/api/portraits/women1.jpg"},
{"id":77,"firstName":"Jacklyn","lastName":"Renforth","email":"jrenforth24@tinyurl.com","phone":"221-545-2882","title":"Teacher","department":"Engineering","image":"https://randomuser.me/api/portraits/men/7.jpg"},
{"id":78,"firstName":"Lind","lastName":"MacArte","email":"lmacarte25@sciencedirect.com","phone":"589-183-8998","title":"Internal Auditor","department":"Engineering","image":"https://randomuser.me/api/portraitsmen0.jpg"},
{"id":79,"firstName":"Lenee","lastName":"Langhorne","email":"llanghorne26@livejournal.com","phone":"433-487-2295","title":"Speech Pathologist","department":"Business Development","image":"https://randomuser.me/api/portraits/7.jpg"},
{"id":80,"firstName":"Jaime","lastName":"Lygo","email":"jlygo27@canalblog.com","phone":"293-228-9846","title":"Senior Quality Engineer","department":"Engineering","image":"https://randomuser.me/api/portraitsmen/9.jpg"},
{"id":81,"firstName":"Bo","lastName":"Zamorrano","email":"bzamorrano28@globo.com","phone":"879-160-4581","title":"Marketing Manager","department":"Research and Development","image":"https://randomuser.me/api/portraits/men/1.jpg"},
{"id":82,"firstName":"Marcelle","lastName":"Watkinson","email":"mwatkinson29@spotify.com","phone":"755-498-6373","title":"Help Desk Operator","department":"Services","image":"https://randomuser.me/api/portraits/women0.jpg"},
{"id":83,"firstName":"Ulises","lastName":"Simonson","email":"usimonson2a@oaic.gov.au","phone":"922-872-5701","title":"Systems Administrator I","department":"Human Resources","image":"https://randomuser.me/api/portraitsmen/62.jpg"},
{"id":84,"firstName":"Domini","lastName":"Shepton","email":"dshepton2b@nhs.uk","phone":"779-147-6919","title":"Junior Executive","department":"Business Development","image":"https://randomuser.me/api/portraits/women/4.jpg"},
{"id":85,"firstName":"Whitman","lastName":"Mockett","email":"wmockett2c@bluehost.com","phone":"132-476-0916","title":"Analog Circuit Design manager","department":"Support","image":"https://randomuser.me/api/portraitsmen/8.jpg"},
{"id":86,"firstName":"Hedvig","lastName":"Normanell","email":"hnormanell2d@lulu.com","phone":"528-829-2233","title":"Accounting Assistant III","department":"Product Management","image":"https://randomuser.me/api/portraits/men/86.jpg"},
{"id":87,"firstName":"Anderea","lastName":"Calam","email":"acalam2e@xrea.com","phone":"706-804-9170","title":"Human Resources Manager","department":"Engineering","image":"https://randomuser.me/api/portraits/9.jpg"},
{"id":88,"firstName":"Austine","lastName":"Cromer","email":"acromer2f@chronoengine.com","phone":"857-618-8888","title":"Actuary","department":"Business Development","image":"https://randomuser.me/api/portraits/women/0.jpg"},
{"id":89,"firstName":"Lorna","lastName":"De Bruijn","email":"ldebruijn2g@smugmug.com","phone":"980-747-3383","title":"Nuclear Power Engineer","department":"Product Management","image":"https://randomuser.me/api/portraits/women8.jpg"},
{"id":90,"firstName":"Pia","lastName":"Cormack","email":"pcormack2h@wikimedia.org","phone":"916-443-9314","title":"Occupational Therapist","department":"Research and Development","image":"https://randomuser.me/api/portraits/1.jpg"},
{"id":91,"firstName":"Danna","lastName":"Tregea","email":"dtregea2i@hexun.com","phone":"725-573-8908","title":"Librarian","department":"Human Resources","image":"https://randomuser.me/api/portraits/women/7.jpg"},
{"id":92,"firstName":"Frieda","lastName":"Trussell","email":"ftrussell2j@boston.com","phone":"886-393-1954","title":"Safety Technician III","department":"Marketing","image":"https://randomuser.me/api/portraits/3.jpg"},
{"id":93,"firstName":"Deidre","lastName":"Ghioni","email":"dghioni2k@unc.edu","phone":"689-830-1395","title":"Internal Auditor","department":"Product Management","image":"https://randomuser.me/api/portraits/men/4.jpg"},
{"id":94,"firstName":"Illa","lastName":"Murdy","email":"imurdy2l@phoca.cz","phone":"130-559-0407","title":"Automation Specialist III","department":"Services","image":"https://randomuser.me/api/portraits/43.jpg"},
{"id":95,"firstName":"Calv","lastName":"Lochrie","email":"clochrie2m@qq.com","phone":"701-327-9477","title":"Assistant Professor","department":"Product Management","image":"https://randomuser.me/api/portraits/men/17.jpg"},
{"id":96,"firstName":"Ugo","lastName":"Bridgwater","email":"ubridgwater2n@cornell.edu","phone":"148-888-9418","title":"Information Systems Manager","department":"Human Resources","image":"https://randomuser.me/api/portraits/53.jpg"},
{"id":97,"firstName":"Janela","lastName":"Pentlow","email":"jpentlow2o@nhs.uk","phone":"992-800-6252","title":"Senior Developer","department":"Sales","image":"https://randomuser.me/api/portraits/women/15.jpg"},
{"id":98,"firstName":"Kathye","lastName":"Wheelan","email":"kwheelan2p@seattletimes.com","phone":"403-863-2525","title":"Cost Accountant","department":"Legal","image":"https://randomuser.me/api/portraitsmen/3.jpg"},
{"id":99,"firstName":"Diana","lastName":"Kopta","email":"dkopta2q@reference.com","phone":"395-703-2400","title":"Assistant Manager","department":"Engineering","image":"https://randomuser.me/api/portraits/4.jpg"},
{"id":100,"firstName":"Peg","lastName":"Elsmere","email":"pelsmere2r@cbslocal.com","phone":"817-244-7170","title":"Accounting Assistant III","department":"Product Management","image":"https://randomuser.me/api/portraits/women/64.jpg"}
]
}